%YAML 1.1
%TAG !u! tag:unity3d.com,2011:
--- !u!114 &11400000
MonoBehaviour:
  m_ObjectHideFlags: 0
  m_CorrespondingSourceObject: {fileID: 0}
  m_PrefabInstance: {fileID: 0}
  m_PrefabAsset: {fileID: 0}
  m_GameObject: {fileID: 0}
  m_Enabled: 1
  m_EditorHideFlags: 0
  m_Script: {fileID: 11500000, guid: bbb281ee3bf0b054c82ac2347e9e782c, type: 3}
  m_Name: Default Local Group
  m_EditorClassIdentifier: 
  m_GroupName: Default Local Group
  m_Data:
    m_SerializedData: []
  m_GUID: ce3bcf60c98839346a4e1d9bfa040857
  m_SerializeEntries: []
  m_ReadOnly: 0
  m_Settings: {fileID: 11400000, guid: d8bd2ce48b59b5b4192dd88bec050b1b, type: 2}
  m_SchemaSet:
    m_Schemas:
    - {fileID: 11400000, guid: 317133fad021ada4bbd1990fc931ce99, type: 2}
    - {fileID: 11400000, guid: a631a0a80a13bc04085c58321511e736, type: 2}
