%YAML 1.1
%TAG !u! tag:unity3d.com,2011:
--- !u!114 &11400000
MonoBehaviour:
  m_ObjectHideFlags: 0
  m_CorrespondingSourceObject: {fileID: 0}
  m_PrefabInstance: {fileID: 0}
  m_PrefabAsset: {fileID: 0}
  m_GameObject: {fileID: 0}
  m_Enabled: 1
  m_EditorHideFlags: 0
  m_Script: {fileID: 11500000, guid: bbb281ee3bf0b054c82ac2347e9e782c, type: 3}
  m_Name: Localization-String-Tables-Korean (ko)
  m_EditorClassIdentifier: 
  m_GroupName: Localization-String-Tables-Korean (ko)
  m_Data:
    m_SerializedData: []
  m_GUID: ee9fc8c582ae18a4da414d01cd439242
  m_SerializeEntries: []
  m_ReadOnly: 1
  m_Settings: {fileID: 11400000, guid: d8bd2ce48b59b5b4192dd88bec050b1b, type: 2}
  m_SchemaSet:
    m_Schemas:
    - {fileID: 11400000, guid: e83edec78d3611d46ac9a8dd0ba5730f, type: 2}
    - {fileID: 11400000, guid: 92c8a0191d4face4393cc7b60c77f783, type: 2}
