%YAML 1.1
%TAG !u! tag:unity3d.com,2011:
--- !u!114 &11400000
MonoBehaviour:
  m_ObjectHideFlags: 0
  m_CorrespondingSourceObject: {fileID: 0}
  m_PrefabInstance: {fileID: 0}
  m_PrefabAsset: {fileID: 0}
  m_GameObject: {fileID: 0}
  m_Enabled: 1
  m_EditorHideFlags: 0
  m_Script: {fileID: 11500000, guid: bbb281ee3bf0b054c82ac2347e9e782c, type: 3}
  m_Name: Localization-Locales
  m_EditorClassIdentifier: 
  m_GroupName: Localization-Locales
  m_Data:
    m_SerializedData: []
  m_GUID: eaa85fc0d34055041add2e25ff16fd09
  m_SerializeEntries: []
  m_ReadOnly: 1
  m_Settings: {fileID: 11400000, guid: d8bd2ce48b59b5b4192dd88bec050b1b, type: 2}
  m_SchemaSet:
    m_Schemas:
    - {fileID: 11400000, guid: cad64a764619ed64d904627ca7cf42f0, type: 2}
    - {fileID: 11400000, guid: 410f1d010b2a6c444b93c05cde24958c, type: 2}
