%YAML 1.1
%TAG !u! tag:unity3d.com,2011:
--- !u!114 &11400000
MonoBehaviour:
  m_ObjectHideFlags: 0
  m_CorrespondingSourceObject: {fileID: 0}
  m_PrefabInstance: {fileID: 0}
  m_PrefabAsset: {fileID: 0}
  m_GameObject: {fileID: 0}
  m_Enabled: 1
  m_EditorHideFlags: 0
  m_Script: {fileID: 11500000, guid: bbb281ee3bf0b054c82ac2347e9e782c, type: 3}
  m_Name: Localization-String-Tables-Chinese (Simplified) (zh-Hans)
  m_EditorClassIdentifier: 
  m_GroupName: Localization-String-Tables-Chinese (Simplified) (zh-Hans)
  m_Data:
    m_SerializedData: []
  m_GUID: f60caf17ed53b6e4cbec583862d5bae4
  m_SerializeEntries: []
  m_ReadOnly: 1
  m_Settings: {fileID: 11400000, guid: d8bd2ce48b59b5b4192dd88bec050b1b, type: 2}
  m_SchemaSet:
    m_Schemas:
    - {fileID: 11400000, guid: 8a3a8336f5bf64f468881a2750efe60d, type: 2}
    - {fileID: 11400000, guid: cd6c716211ff33642a42d8f5daa7a30f, type: 2}
