%YAML 1.1
%TAG !u! tag:unity3d.com,2011:
--- !u!114 &11400000
MonoBehaviour:
  m_ObjectHideFlags: 0
  m_CorrespondingSourceObject: {fileID: 0}
  m_PrefabInstance: {fileID: 0}
  m_PrefabAsset: {fileID: 0}
  m_GameObject: {fileID: 0}
  m_Enabled: 1
  m_EditorHideFlags: 0
  m_Script: {fileID: 11500000, guid: 468a46d0ae32c3544b7d98094e6448a9, type: 3}
  m_Name: AddressableAssetSettings
  m_EditorClassIdentifier: 
  m_DefaultGroup: ce3bcf60c98839346a4e1d9bfa040857
  m_CachedHash:
    serializedVersion: 2
    Hash: 00000000000000000000000000000000
  m_OptimizeCatalogSize: 0
  m_BuildRemoteCatalog: 0
  m_BundleLocalCatalog: 0
  m_CatalogRequestsTimeout: 0
  m_DisableCatalogUpdateOnStart: 0
  m_IgnoreUnsupportedFilesInBuild: 0
  m_UniqueBundleIds: 0
  m_NonRecursiveBuilding: 1
  m_CCDEnabled: 0
  m_maxConcurrentWebRequests: 500
  m_ContiguousBundles: 1
  m_StripUnityVersionFromBundleBuild: 0
  m_DisableVisibleSubAssetRepresentations: 0
  m_ShaderBundleNaming: 0
  m_ShaderBundleCustomNaming: 
  m_MonoScriptBundleNaming: 0
  m_MonoScriptBundleCustomNaming: 
  m_RemoteCatalogBuildPath:
    m_Id: 
  m_RemoteCatalogLoadPath:
    m_Id: 
  m_ContentStateBuildPath: 
  m_BuildAddressablesWithPlayerBuild: 0
  m_overridePlayerVersion: 
  m_GroupAssets:
  - {fileID: 11400000, guid: fbd077c5590c676419d9fcd3e32a2771, type: 2}
  - {fileID: 11400000, guid: 43677b15b4704d24f9e2266473a75df6, type: 2}
  - {fileID: 11400000, guid: e9c6011975fee3641b46239129ee8241, type: 2}
  - {fileID: 11400000, guid: 1ae2d801d23171941b8e3c5d8080a5de, type: 2}
  - {fileID: 11400000, guid: 1d932a38af361aa4b8fc62d5a327dea7, type: 2}
  - {fileID: 11400000, guid: 355d0127a42355140b5f6b49e070c079, type: 2}
  m_BuildSettings:
    m_CompileScriptsInVirtualMode: 0
    m_CleanupStreamingAssetsAfterBuilds: 1
    m_LogResourceManagerExceptions: 1
    m_BundleBuildPath: Temp/com.unity.addressables/AssetBundles
  m_ProfileSettings:
    m_Profiles:
    - m_InheritedParent: 
      m_Id: 4452ba04d10706b458f98ab4267c8d13
      m_ProfileName: Default
      m_Values:
      - m_Id: 5c5ef5d784739484e97e1fb81482fb35
        m_Value: '[UnityEditor.EditorUserBuildSettings.activeBuildTarget]'
      - m_Id: 357140acf6b991f40855268d76c01202
        m_Value: '[UnityEngine.AddressableAssets.Addressables.BuildPath]/[BuildTarget]'
      - m_Id: 7c595214f8c5b1a4f8f430cd9fe19d31
        m_Value: '{UnityEngine.AddressableAssets.Addressables.RuntimePath}/[BuildTarget]'
      - m_Id: 3b22933b11598ff4099d22e32e64b424
        m_Value: ServerData/[BuildTarget]
      - m_Id: ff7f2b37a7c6e9e45a31324d2eeff5b7
        m_Value: http://[PrivateIpAddress]:[HostingServicePort]
    m_ProfileEntryNames:
    - m_Id: 5c5ef5d784739484e97e1fb81482fb35
      m_Name: BuildTarget
      m_InlineUsage: 0
    - m_Id: 357140acf6b991f40855268d76c01202
      m_Name: Local.BuildPath
      m_InlineUsage: 0
    - m_Id: 7c595214f8c5b1a4f8f430cd9fe19d31
      m_Name: Local.LoadPath
      m_InlineUsage: 0
    - m_Id: 3b22933b11598ff4099d22e32e64b424
      m_Name: Remote.BuildPath
      m_InlineUsage: 0
    - m_Id: ff7f2b37a7c6e9e45a31324d2eeff5b7
      m_Name: Remote.LoadPath
      m_InlineUsage: 0
    m_ProfileVersion: 1
  m_LabelTable:
    m_LabelNames:
    - default
    - Locale
    - Locale-zh-Hans
    - Preload
    - Locale-ko
  m_SchemaTemplates: []
  m_GroupTemplateObjects:
  - {fileID: 11400000, guid: 796332ab14cd5bb45b2acc08ed9dd437, type: 2}
  m_InitializationObjects: []
  m_CertificateHandlerType:
    m_AssemblyName: 
    m_ClassName: 
  m_ActivePlayerDataBuilderIndex: 3
  m_DataBuilders:
  - {fileID: 11400000, guid: c42f5e9236296b542affd77513922a60, type: 2}
  - {fileID: 11400000, guid: 4e292b01c5b6ed94eae9e7b54d6e6f06, type: 2}
  - {fileID: 11400000, guid: 63404b289ac2af14b8800856caaa033b, type: 2}
  - {fileID: 11400000, guid: a8ce502cdf0158046bc60d1ef2c2e14a, type: 2}
  m_ActiveProfileId: 4452ba04d10706b458f98ab4267c8d13
  m_HostingServicesManager:
    m_HostingServiceInfos: []
    m_Settings: {fileID: 11400000}
    m_NextInstanceId: 0
    m_RegisteredServiceTypeRefs: []
